<svg width="92" height="31" viewBox="0 0 92 31" fill="none" xmlns="http://www.w3.org/2000/svg">
<g opacity="0.6">
<path opacity="0.6" d="M77 0.599976H15.4C7.20002 0.599976 0.5 7.29998 0.5 15.5C0.5 23.7 7.20002 30.4 15.4 30.4H77C85.2 30.4 91.9 23.7 91.9 15.5C91.9 7.29998 85.2 0.599976 77 0.599976ZM76.7 28.7H15.5C8.3 28.7 2.40002 22.8 2.40002 15.6C2.40002 8.39998 8.3 2.49998 15.5 2.49998H76.7C83.9 2.49998 89.8 8.39998 89.8 15.6C89.9 22.8 84 28.7 76.7 28.7Z" fill="#ADD7F2"/>
<g opacity="0.6">
<path opacity="0.6" d="M76.7999 5.19995H15.5999C9.89991 5.19995 5.19995 9.79995 5.19995 15.6C5.19995 21.3 9.79991 26 15.5999 26H76.7999C82.4999 26 87.2 21.4 87.2 15.6C87.2 9.79995 82.4999 5.19995 76.7999 5.19995ZM21.9999 9.79995H29.2V10.4H21.9999V9.79995ZM20.5999 16.7C20.5999 17.9 20.4999 18.8 19.5999 19.7C18.6999 20.5 17.6999 20.6 16.4999 20.6H11.0999V18.4C11.4999 18.2 11.5999 17.8 11.5999 17.4V11.5C11.5999 11.1 11.5999 10.7 11.0999 10.5V8.39995H16.2999C17.2999 8.39995 18.5 8.39995 19.4 9.09995C20.4 9.89995 20.4999 11 20.4999 12.1V16.7H20.5999V16.7ZM29.4999 14.7V16.8H24.9V17.6C24.9 18 24.8999 18.6 25.4999 18.6C26.0999 18.6 26.0999 18.1 26.0999 17.6V17.4H29.4V19.6C28.7 20.2 27.3 20.6 25.9 20.7C24.5 20.8 23.2 20.6 22.4 20C21.5 19.3 21.4 18.3 21.4 17.2V14.8C21.3 12.4 22.1999 11.4 25.2999 11.4C28.6999 11.5 29.4999 12.5 29.4999 14.7ZM39.0999 20.6H30.2V18.4C30.7 18.1 30.5999 17.7 30.5999 17.2V11.7C30.5999 11.2 30.6 10.8 30.2 10.5V8.39995H34.7999V10.6C34.2999 10.9 34.4 11.3 34.4 11.8V18H34.7999C35.7999 18 35.7999 17.4 35.7999 16.7V14.7H39.0999V20.6ZM47.9 17.2C47.9 18.2 47.8999 19.3 47.0999 20C46.2999 20.7 45.0999 20.8 44.0999 20.8C43.1999 20.8 41.8999 20.7 41.0999 20.2C39.9999 19.5 39.9999 18.4 39.9999 17.2V14.9C39.9999 13.9 40 12.9 40.9 12.2C41.7 11.6 42.7999 11.5 43.7999 11.5C44.6999 11.5 46.0999 11.6 46.7999 12C47.8999 12.7 47.9 13.7 47.9 14.9V17.2ZM57.4999 20.6H53.9C53.7 19.7 53.7 18.7 53.7 17.8V15.2C53.7 15.1 53.6999 14.7 53.5999 14.4C53.3999 14.1 52.9999 13.8 52.4999 14.1V17.4C52.4999 17.8 52.5 18.3 52.9 18.6V20.6H48.7V18.6C49.1 18.3 49.0999 17.9 49.0999 17.5V14.8C49.0999 14.3 49.1 14 48.7 13.7V11.7H52.2999V12.3C53.1999 11.7 54 11.5 54.7 11.6C55.4 11.6 55.9999 11.9 56.2999 12.2C56.8999 12.8 56.9999 13.4 56.9999 14.2V17.4C56.9999 17.8 57 18.3 57.4 18.6L57.4999 20.6ZM66.7999 13.7C66.3999 14 66.4 14.4 66.4 14.8V20.2C66.4 21.2 66.4 22.5999 65.7 23.2999C64.9 24.0999 63.5999 24.2 62.5999 24.2C61.0999 24.2 60 24 58.7 23.2V21.1H61.7999C61.7999 21.3 61.8 21.5999 61.9 21.7999C62 21.9999 62.2 22.1 62.4 22.1C63.1 22.1 63.0999 21.2 63.0999 20.7V20.1C62.4999 20.6 61.7999 20.8 61.0999 20.8C59.3999 20.8 58.4 20 58.4 18V14.6C58.4 12.7 58.9 11.4 60.9 11.4C61.7 11.4 62.4999 11.6 63.0999 12.1V11.6H66.7999V13.7ZM76.4999 20.6H72.9C72.7 19.7 72.7 18.7 72.7 17.8V15.2C72.7 15.1 72.6999 14.7 72.5999 14.4C72.3999 14.1 72 13.8 71.4 14.1V17.4C71.4 17.8 71.3999 18.3 71.7999 18.6V20.6H67.5999V18.6C67.9999 18.3 67.9999 17.9 67.9999 17.5V11.6C67.9999 11.1 67.9999 10.7 67.5999 10.4V8.39995H71.4V12C72.1 11.6 72.9 11.4 73.7 11.4C74.4 11.4 74.9999 11.7 75.2999 12C75.8999 12.6 75.9999 13.2 75.9999 14V17.4C75.9999 17.8 76 18.3 76.4 18.6L76.4999 20.6ZM79.2999 8.29995C80.0999 8.29995 81.0999 8.79995 81.0999 9.69995C81.0999 10.6 80.1999 11.1 79.2999 11.1C78.3999 11.1 77.4999 10.7 77.4999 9.69995C77.3999 8.69995 78.3999 8.29995 79.2999 8.29995ZM81.4999 20.6H77.2999V18.6C77.6999 18.3 77.7 17.9 77.7 17.5V14.9C77.7 14.4 77.6999 14 77.2999 13.7V11.7H81.0999V17.4C81.0999 17.9 81.0999 18.3 81.4999 18.6V20.6V20.6Z" fill="#ADD7F2"/>
<path opacity="0.6" d="M25.4998 13.6C24.8998 13.6 24.7998 14.2 24.7998 14.5V14.8H26.0998V14.5C26.1998 14.1 26.0998 13.6 25.4998 13.6Z" fill="#ADD7F2"/>
<path opacity="0.6" d="M15.6999 11.1H15.3999V18H15.6999C16.4999 18 16.7999 17.7 16.7999 16.8V12.2C16.7999 11.4 16.4999 11.1 15.6999 11.1Z" fill="#ADD7F2"/>
<path opacity="0.6" d="M43.8999 13.6C43.1999 13.6 43.2999 14.4 43.2999 14.9V17.5C43.2999 18 43.2999 18.7 43.8999 18.7C44.5999 18.7 44.4999 18 44.4999 17.5V14.9C44.5999 14.4 44.6999 13.6 43.8999 13.6Z" fill="#ADD7F2"/>
<path opacity="0.6" d="M61.7998 14.9999V16.9999C61.7998 17.4999 61.7998 18.2999 62.4998 18.2999C62.6998 18.2999 62.8998 18.1999 63.0998 18.0999V14.0999C62.8998 13.9999 62.6998 13.8999 62.4998 13.8999C61.7998 13.8999 61.7998 14.4999 61.7998 14.9999Z" fill="#ADD7F2"/>
</g>
</g>
</svg>
