<svg width="79" height="18" viewBox="0 0 79 18" fill="none" xmlns="http://www.w3.org/2000/svg">
<path opacity="0.6" d="M0.400085 17.2001H3.70007V9.50005L9.70007 17.2001H14.0001L6.90009 8.40005L13.7001 0.600049H9.60004L3.60004 7.70005V0.600049H0.300049L0.400085 17.2001ZM25.1 10.5C27.3 9.90005 29.1 8.00005 29.1 5.70005C29.1 2.90005 26.8001 0.600049 24.0001 0.600049H17.0001V17.2001H20.3V9.50005L26.3 17.2001H30.6L25.1 10.5ZM23.0001 8.60005H20.3V3.20005H23.0001C24.5001 3.20005 25.7001 4.40005 25.7001 5.90005C25.7001 7.40005 24.5001 8.60005 23.0001 8.60005ZM58.8 0.600049H51.8V17.2001H55.1V10.9H58.7001C61.5001 10.9 63.8 8.60005 63.8 5.80005C63.9 2.90005 61.6 0.600049 58.8 0.600049ZM57.8 8.60005H55.1V3.20005H57.8C59.3 3.20005 60.5001 4.40005 60.5001 5.90005C60.5001 7.50005 59.3 8.60005 57.8 8.60005ZM43.5001 11.7C43.5001 13.5 42.0001 15 40.2001 15C38.4001 15 36.9001 13.5 36.9001 11.7V0.600049H33.6V11.2C33.6 15.6 36.1001 17.5 40.2001 17.5C44.4001 17.5 46.8 15.7 46.8 11.2V0.600049H43.5001V11.7V11.7ZM77.1 0.900048C75.9 0.500048 74.7 0.300049 73.3 0.300049C70.4 0.300049 67.5001 1.70005 67.5001 5.30005C67.5001 10.8 74.8 9.50005 74.8 12.6C74.8 14.1 73.1001 14.7 71.9001 14.7C70.6001 14.7 68.8001 14.4 67.5001 13.8V16.5C69.1001 17 70.3 17.3 72.1 17.3C75.4 17.3 78.3 15.9 78.3 12.3C78.3 6.80005 71.0001 8.00005 71.0001 5.10005C71.0001 3.30005 72.5 2.80005 73.6 2.80005C74.8 2.80005 76 3.10005 77.1 3.50005V0.900048Z" fill="#ADD7F2"/>
</svg>
